file.vcd
$date
     Jul 17, 2024       18:44:02
$end

$version
 SystemC 2.3.4-Accellera --- May 13 2024 16:42:43
$end

$timescale
     1 ps
$end

$scope module SystemC $end
$var wire   32  aaaaa  output [31:0]  $end
$var wire    1  aaaab  done       $end
$upscope $end
$enddefinitions  $end

$comment
All initial values are dumped below at time 0 sec = 0 timescale units.
$end

$dumpvars
b0 aaaaa
0aaaab
$end

#47000000000000
1aaaab

#48000000000000
0aaaab

#56000000000000
b100 aaaaa
1aaaab

#57000000000000
0aaaab

#61000000000000
b0 aaaaa

#65000000000000
b10000000000 aaaaa
1aaaab

#66000000000000
0aaaab

#112000000000000
1aaaab

#113000000000000
0aaaab

#136000000000000
1aaaab

#137000000000000
0aaaab

#141000000000000
b101 aaaaa
1aaaab

#142000000000000
0aaaab

#146000000000000
b0 aaaaa

#150000000000000
1aaaab

#151000000000000
0aaaab

#174000000000000
1aaaab

#175000000000000
0aaaab

#179000000000000
b110 aaaaa

#202000000000000
b1100000000000000000 aaaaa
1aaaab

